%YAML 1.1
%TAG !u! tag:unity3d.com,2011:
--- !u!1045 &1
EditorBuildSettings:
  m_ObjectHideFlags: 0
  serializedVersion: 2
  m_Scenes:
  - enabled: 1
    path: Assets/Scenes/RotarySwitch.unity
    guid: 8398780e7016b1c44b8b0aa263676b35
  m_configObjects:
    Unity.XR.Oculus.Settings: {fileID: 11400000, guid: 9b3a7289201c0b34f960828700566565, type: 2}
    com.unity.xr.management.loader_settings: {fileID: 11400000, guid: bca56d00e735dd645a9c0127e473fe91, type: 2}
